{
  "_default": {},
  "users": {
    "1": {
      "id": "f31347dc-d932-4302-9ad2-6cb39c8bfb48",
      "name": "admin",
      "password": "admin",
      "token": "272712a79a31cde01ed97791cbb895583b8d7b6f"
    },
    "2": {
      "id": "a840476e-cb36-43f4-b856-61ff41e26f58",
      "name": "rekky",
      "password": "1234",
      "token": "0cc7009c8faaf6c34bd273d95d25f8d864e710c9",
      "first_time": true
    }
  },
  "players": {
    "1": {
      "id": "a840476e-cb36-43f4-b856-61ff41e26f58",
      "nickname": "rekkysitoito",
      "race": 1,
      "job": 4,
      "Equip": []
    }
  }
}